////////////////////////////////////////////////////////////////////////////////
// 
// Fenris Project 97d
// https://bitbucket.com/fenris-plugin/fenris-server
//
////////////////////////////////////////////////////////////////////////////////

0 	0 	5 	0 	0 	0	
