////////////////////////////////////////////////////////////////////////////////
// 
// Fenris Project 97d
// https://bitbucket.com/fenris-plugin/fenris-server
//
////////////////////////////////////////////////////////////////////////////////
//
// Made by noobies
// LorenciaMuOnline , http://lorenciamu.no-ip.org
// Credits to ME & Ragezone
//
////////////////////////////////////////////////////////////////////////////////
//
// BOK+1
//

12	15	0	0	0	0	//Jewel of Chaos